{
  "name": "geoType",
  "public": true,
  "plural": "geoTypes",
  "options": {
    "relations": {
      "siteGeos": {
        "model": "siteGeo",
        "type": "hasMany",
        "foreignKey": "geoTypeId"
      }
    },
    "acls": [
      {
        "accessType": "*",
        "permission": "ALLOW",
        "principalType": "ROLE",
        "principalId": "$everyone"
      }
    ]
  },
  "properties": {
    "id": {
      "type": "number"
    },
    "name": {
      "type": "string"
    },
    "desc": {
      "type": "string"
    }
  }
}
