{
  "name": "party",
  "public": true,
  "plural": "parties",
  "options": {
    "relations": {
      "statusPartyMMs": {
        "model": "statusPartyMM",
        "type": "hasMany",
        "foreignKey": "partyId"
      },
      "duties": {
        "model": "duty",
        "type": "hasMany",
        "foreignKey": "partyId"
      },
      "sites": {
        "model": "site",
        "type": "hasMany",
        "foreignKey": "partyId"
      }
    },
    "acls": [
      {
        "accessType": "*",
        "permission": "ALLOW",
        "principalType": "ROLE",
        "principalId": "$everyone"
      }
    ]
  },
  "properties": {
    "id": {
      "type": "number"
    },
    "name": {
      "type": "string"
    },
    "desc": {
      "type": "string"
    }
  }
}
