{
  "name": "state",
  "public": true,
  "plural": "states",
  "options": {
    "relations": {
      "sites": {
        "model": "site",
        "type": "hasMany",
        "foreignKey": "stateId"
      },
      "vehicles": {
        "model": "vehicle",
        "type": "hasMany",
        "foreignKey": "stateId"
      }
    },
    "acls": [
      {
        "accessType": "*",
        "permission": "ALLOW",
        "principalType": "ROLE",
        "principalId": "$everyone"
      }
    ]
  },
  "properties": {
    "id": {
      "type": "string"
    },
    "name": {
      "type": "string"
    }
  }
}
