{
  "name": "statusRight",
  "public": true,
  "plural": "statusRights",
  "options": {
    "relations": {
      "status": {
        "model": "status",
        "type": "belongsTo"
      },
      "party": {
        "model": "party",
        "type": "belongsTo"
      }
    },
    "acls": [
      {
        "accessType": "*",
        "permission": "ALLOW",
        "principalType": "ROLE",
        "principalId": "$everyone"
      }
    ]
  },
  "properties": {
    "id": {
      "type": "number"
    },
    "partyId": {
      "type": "number"
    },
    "statusId": {
      "type": "number"
    }
  }
}
