{
  "name": "towReqPic",
  "public": true,
  "plural": "towReqPics",
  "options": {
    "relations": {
      "statusEntry": {
        "model": "statusEntry",
        "type": "belongsTo"
      },
      "picType": {
        "model": "picType",
        "type": "belongsTo"
      }
    },
    "acls": [
      {
        "accessType": "*",
        "permission": "ALLOW",
        "principalType": "ROLE",
        "principalId": "$everyone"
      }
    ]
  },
  "properties": {
    "id": {
      "type": "number"
    },
    "filename": {
      "type": "string"
    },
    "timestamp": {
      "type": "string"
    },
    "lat": {
      "type": "number"
    },
    "long": {
      "type": "number"
    },
    "picTypeId": {
      "type": "number"
    },
    "statusEntryId": {
      "type": "number"
    }
  }
}
